Wartezeit an ÖV-Haltestelem beim Reisebeginn
…
# Schweizergrenze für Visualisierung
schweiz <- read_sf("schweiz.gpkg")

# Daten zusammenführen
posmo <- rbind(stefan, miriam)

# nicht relevante Spalten entfernen
posmo <- posmo |> 
  select(-user_id, -weekday, -place_name)

# NA finden & entfernen
posmo[!complete.cases(posmo), ] # Zeigt Zeilen mit NA an

# A tibble: 999 × 5
   datetime            transport_mode lon_x lat_y person
   <dttm>              <chr>          <dbl> <dbl> <chr> 
 1 2023-05-02 22:00:00 <NA>            8.70  47.1 Stefan
 2 2023-05-03 03:25:11 <NA>            8.70  47.1 Stefan
 3 2023-05-03 04:52:23 <NA>            8.70  47.1 Stefan
 4 2023-05-03 05:47:14 <NA>            8.72  47.1 Stefan
 5 2023-05-03 06:06:45 <NA>            8.74  47.1 Stefan
 6 2023-05-03 06:45:46 <NA>            8.69  47.2 Stefan
 7 2023-05-03 06:49:17 <NA>            8.70  47.2 Stefan
 8 2023-05-03 11:59:45 <NA>            8.71  47.2 Stefan
 9 2023-05-03 12:41:15 <NA>            8.67  47.2 Stefan
10 2023-05-03 13:02:35 <NA>            8.68  47.2 Stefan
# … with 989 more rows
…
